^C:\USERS\TD\DEV\PROJECT\SRC\THIRD-YEAR-PROJECT\BRITISH-NATIONAL-CORPUS-PARSER\DEMO\BNCPARSER.OBJ|C:\USERS\TD\DEV\PROJECT\SRC\THIRD-YEAR-PROJECT\BRITISH-NATIONAL-CORPUS-PARSER\DEMO\STDAFX.OBJ
C:\WINDOWS\SYSTEM32\TZRES.DLL
C:\USERS\TD\DEV\PROJECT\SRC\THIRD-YEAR-PROJECT\BRITISH-NATIONAL-CORPUS-PARSER\DEMO\BNCPARSER.OBJ
C:\USERS\TD\DEV\PROJECT\SRC\THIRD-YEAR-PROJECT\BRITISH-NATIONAL-CORPUS-PARSER\DEMO\STDAFX.OBJ
C:\WINDOWS\GLOBALIZATION\SORTING\SORTDEFAULT.NLS
