^C:\USERS\TD\DEV\PROJECT\SRC\THIRD-YEAR-PROJECT\DEMO SERIAL\BRILLTAGGER.LIB|C:\USERS\TD\DEV\PROJECT\SRC\THIRD-YEAR-PROJECT\DEMO SERIAL\BRITISH-NATIONAL-CORPUS-PARSER.LIB|C:\USERS\TD\DEV\PROJECT\SRC\THIRD-YEAR-PROJECT\DEMO SERIAL\TAG-FREQUENCY.LIB|C:\USERS\TD\DEV\PROJECT\SRC\THIRD-YEAR-PROJECT\THIRD-YEAR-PROJECT\DEMO SERIAL\BENCHMARK.OBJ|C:\USERS\TD\DEV\PROJECT\SRC\THIRD-YEAR-PROJECT\THIRD-YEAR-PROJECT\DEMO SERIAL\DEMO.OBJ|C:\USERS\TD\DEV\PROJECT\SRC\THIRD-YEAR-PROJECT\THIRD-YEAR-PROJECT\DEMO SERIAL\STDAFX.OBJ|C:\USERS\TD\DEV\PROJECT\SRC\THIRD-YEAR-PROJECT\THIRD-YEAR-PROJECT\DEMO SERIAL\THIRD-YEAR-PROJECT.OBJ
C:\USERS\TD\DEV\PROJECT\SRC\THIRD-YEAR-PROJECT\DEMO SERIAL\THIRD-YEAR-PROJECT.EXE
C:\USERS\TD\DEV\PROJECT\SRC\THIRD-YEAR-PROJECT\DEMO SERIAL\THIRD-YEAR-PROJECT.PDB
