^C:\USERS\TD\DEV\PROJECT\SRC\THIRD-YEAR-PROJECT\BRITISH-NATIONAL-CORPUS-PARSER-TESTS\DEMO\TESTS\BRILLRULEGENTEST.OBJ|C:\USERS\TD\DEV\PROJECT\SRC\THIRD-YEAR-PROJECT\BRITISH-NATIONAL-CORPUS-PARSER-TESTS\DEMO\TESTS\BRILLRULEOUTPUTTEST.OBJ|C:\USERS\TD\DEV\PROJECT\SRC\THIRD-YEAR-PROJECT\BRITISH-NATIONAL-CORPUS-PARSER-TESTS\DEMO\TESTS\RULEPARSERTEST.OBJ|C:\USERS\TD\DEV\PROJECT\SRC\THIRD-YEAR-PROJECT\BRITISH-NATIONAL-CORPUS-PARSER-TESTS\DEMO\TESTS\RULETEST.OBJ|C:\USERS\TD\DEV\PROJECT\SRC\THIRD-YEAR-PROJECT\BRITISH-NATIONAL-CORPUS-PARSER-TESTS\DEMO\TESTS\SENTENCEPARSETEST.OBJ|C:\USERS\TD\DEV\PROJECT\SRC\THIRD-YEAR-PROJECT\BRITISH-NATIONAL-CORPUS-PARSER-TESTS\DEMO\TESTS\STDAFX.OBJ|C:\USERS\TD\DEV\PROJECT\SRC\THIRD-YEAR-PROJECT\BRITISH-NATIONAL-CORPUS-PARSER-TESTS\DEMO\TESTS\TAGFREQUENCYTEST.OBJ|C:\USERS\TD\DEV\PROJECT\SRC\THIRD-YEAR-PROJECT\DEMO\BRILLTAGGER.LIB|C:\USERS\TD\DEV\PROJECT\SRC\THIRD-YEAR-PROJECT\DEMO\BRITISH-NATIONAL-CORPUS-PARSER.LIB|C:\USERS\TD\DEV\PROJECT\SRC\THIRD-YEAR-PROJECT\DEMO\TAG-FREQUENCY.LIB
C:\USERS\TD\DEV\PROJECT\SRC\THIRD-YEAR-PROJECT\DEMO\TESTS.EXE
C:\USERS\TD\DEV\PROJECT\SRC\THIRD-YEAR-PROJECT\DEMO\TESTS.PDB
