^C:\USERS\TD\DEV\PROJECT\SRC\THIRD-YEAR-PROJECT\TAG-FREQUENCY\STDAFX.CPP|C:\USERS\TD\DEV\PROJECT\SRC\THIRD-YEAR-PROJECT\TAG-FREQUENCY\TAGFREQUENCY.CPP
C:\USERS\TD\DEV\PROJECT\SRC\THIRD-YEAR-PROJECT\TAG-FREQUENCY\DEMO PARALLEL\VC120.PDB
C:\USERS\TD\DEV\PROJECT\SRC\THIRD-YEAR-PROJECT\TAG-FREQUENCY\DEMO PARALLEL\STDAFX.OBJ
^C:\USERS\TD\DEV\PROJECT\SRC\THIRD-YEAR-PROJECT\TAG-FREQUENCY\STDAFX.CPP
C:\USERS\TD\DEV\PROJECT\SRC\THIRD-YEAR-PROJECT\TAG-FREQUENCY\DEMO PARALLEL\STDAFX.OBJ
