^C:\USERS\TD\DEV\PROJECT\SRC\THIRD-YEAR-PROJECT\PROTOTYPES\PARALLELPATTERNSLIBRARYPROTOTYPE\STDAFX.CPP
/c /Zi /nologo /W3 /WX- /sdl /O2 /Oi /Oy- /GL /D WIN32 /D NDEBUG /D _CONSOLE /D _LIB /D _UNICODE /D UNICODE /Gm- /EHsc /MD /GS /Gy /fp:precise /Zc:wchar_t /Zc:forScope /Yc"stdafx.h" /Fp"DEMO\PARALLELPATTERNSLIBRARYPROTOTYPE.PCH" /Fo"DEMO\\" /Fd"DEMO\VC120.PDB" /Gd /TP /analyze- C:\USERS\TD\DEV\PROJECT\SRC\THIRD-YEAR-PROJECT\PROTOTYPES\PARALLELPATTERNSLIBRARYPROTOTYPE\STDAFX.CPP
^C:\USERS\TD\DEV\PROJECT\SRC\THIRD-YEAR-PROJECT\PROTOTYPES\PARALLELPATTERNSLIBRARYPROTOTYPE\PARALLELPATTERNSLIBRARYPROTOTYPE.CPP
/c /Zi /nologo /W3 /WX- /sdl /O2 /Oi /Oy- /GL /D WIN32 /D NDEBUG /D _CONSOLE /D _LIB /D _UNICODE /D UNICODE /Gm- /EHsc /MD /GS /Gy /fp:precise /Zc:wchar_t /Zc:forScope /Yu"stdafx.h" /Fp"DEMO\PARALLELPATTERNSLIBRARYPROTOTYPE.PCH" /Fo"DEMO\\" /Fd"DEMO\VC120.PDB" /Gd /TP /analyze- C:\USERS\TD\DEV\PROJECT\SRC\THIRD-YEAR-PROJECT\PROTOTYPES\PARALLELPATTERNSLIBRARYPROTOTYPE\PARALLELPATTERNSLIBRARYPROTOTYPE.CPP
