^C:\USERS\TD\DEV\PROJECT\SRC\THIRD-YEAR-PROJECT\BRITISH-NATIONAL-CORPUS-PARSER\STDAFX.CPP
C:\USERS\TD\DEV\PROJECT\SRC\THIRD-YEAR-PROJECT\BRITISH-NATIONAL-CORPUS-PARSER\STDAFX.H
C:\USERS\TD\DEV\PROJECT\SRC\THIRD-YEAR-PROJECT\BRITISH-NATIONAL-CORPUS-PARSER\TARGETVER.H
C:\PROGRAM FILES\WINDOWS KITS\8.1\INCLUDE\SHARED\SDKDDKVER.H
C:\PROGRAM FILES\MICROSOFT VISUAL STUDIO 12.0\VC\INCLUDE\STDIO.H
C:\PROGRAM FILES\MICROSOFT VISUAL STUDIO 12.0\VC\INCLUDE\CRTDEFS.H
C:\PROGRAM FILES\MICROSOFT VISUAL STUDIO 12.0\VC\INCLUDE\SAL.H
C:\PROGRAM FILES\MICROSOFT VISUAL STUDIO 12.0\VC\INCLUDE\CONCURRENCYSAL.H
C:\PROGRAM FILES\MICROSOFT VISUAL STUDIO 12.0\VC\INCLUDE\VADEFS.H
C:\PROGRAM FILES\MICROSOFT VISUAL STUDIO 12.0\VC\INCLUDE\SWPRINTF.INL
C:\PROGRAM FILES\MICROSOFT VISUAL STUDIO 12.0\VC\INCLUDE\TCHAR.H
C:\PROGRAM FILES\MICROSOFT VISUAL STUDIO 12.0\VC\INCLUDE\STRING.H
