^C:\USERS\TD\DEV\PROJECT\SRC\THIRD-YEAR-PROJECT\BRITISH-NATIONAL-CORPUS-PARSER-TESTS\BRILLRULEGENTEST.CPP
/c /I"C:\Users\Todd\dev\project\src\Third-Year-Project\BrillTagger" /I"C:\Users\Todd\dev\project\src\Third-Year-Project\British-National-Corpus-parser\\" /I"C:\Users\Todd\dev\project\src\Third-Year-Project\Tag-Frequency\\" /I"C:\Program Files\boost\boost_1_55_0" /Zi /nologo /W3 /WX- /O2 /Oi /Ot /Oy- /GL /D WIN32 /D NDEBUG /D _CONSOLE /D _LIB /D _UNICODE /D UNICODE /Gm- /EHsc /MD /GS /Gy /fp:precise /Zc:wchar_t /Zc:forScope /Fo"DEMO SERIAL\TESTS\\" /Fd"DEMO SERIAL\TESTS\VC120.PDB" /Gd /TP /analyze- C:\USERS\TD\DEV\PROJECT\SRC\THIRD-YEAR-PROJECT\BRITISH-NATIONAL-CORPUS-PARSER-TESTS\BRILLRULEGENTEST.CPP
^C:\USERS\TD\DEV\PROJECT\SRC\THIRD-YEAR-PROJECT\BRITISH-NATIONAL-CORPUS-PARSER-TESTS\BRILLRULEOUTPUTTEST.CPP
/c /I"C:\Users\Todd\dev\project\src\Third-Year-Project\BrillTagger" /I"C:\Users\Todd\dev\project\src\Third-Year-Project\British-National-Corpus-parser\\" /I"C:\Users\Todd\dev\project\src\Third-Year-Project\Tag-Frequency\\" /I"C:\Program Files\boost\boost_1_55_0" /Zi /nologo /W3 /WX- /O2 /Oi /Ot /Oy- /GL /D WIN32 /D NDEBUG /D _CONSOLE /D _LIB /D _UNICODE /D UNICODE /Gm- /EHsc /MD /GS /Gy /fp:precise /Zc:wchar_t /Zc:forScope /Fo"DEMO SERIAL\TESTS\\" /Fd"DEMO SERIAL\TESTS\VC120.PDB" /Gd /TP /analyze- C:\USERS\TD\DEV\PROJECT\SRC\THIRD-YEAR-PROJECT\BRITISH-NATIONAL-CORPUS-PARSER-TESTS\BRILLRULEOUTPUTTEST.CPP
^C:\USERS\TD\DEV\PROJECT\SRC\THIRD-YEAR-PROJECT\BRITISH-NATIONAL-CORPUS-PARSER-TESTS\RULEPARSERTEST.CPP
/c /I"C:\Users\Todd\dev\project\src\Third-Year-Project\BrillTagger" /I"C:\Users\Todd\dev\project\src\Third-Year-Project\British-National-Corpus-parser\\" /I"C:\Users\Todd\dev\project\src\Third-Year-Project\Tag-Frequency\\" /I"C:\Program Files\boost\boost_1_55_0" /Zi /nologo /W3 /WX- /O2 /Oi /Ot /Oy- /GL /D WIN32 /D NDEBUG /D _CONSOLE /D _LIB /D _UNICODE /D UNICODE /Gm- /EHsc /MD /GS /Gy /fp:precise /Zc:wchar_t /Zc:forScope /Fo"DEMO SERIAL\TESTS\\" /Fd"DEMO SERIAL\TESTS\VC120.PDB" /Gd /TP /analyze- C:\USERS\TD\DEV\PROJECT\SRC\THIRD-YEAR-PROJECT\BRITISH-NATIONAL-CORPUS-PARSER-TESTS\RULEPARSERTEST.CPP
^C:\USERS\TD\DEV\PROJECT\SRC\THIRD-YEAR-PROJECT\BRITISH-NATIONAL-CORPUS-PARSER-TESTS\RULETEST.CPP
/c /I"C:\Users\Todd\dev\project\src\Third-Year-Project\BrillTagger" /I"C:\Users\Todd\dev\project\src\Third-Year-Project\British-National-Corpus-parser\\" /I"C:\Users\Todd\dev\project\src\Third-Year-Project\Tag-Frequency\\" /I"C:\Program Files\boost\boost_1_55_0" /Zi /nologo /W3 /WX- /O2 /Oi /Ot /Oy- /GL /D WIN32 /D NDEBUG /D _CONSOLE /D _LIB /D _UNICODE /D UNICODE /Gm- /EHsc /MD /GS /Gy /fp:precise /Zc:wchar_t /Zc:forScope /Fo"DEMO SERIAL\TESTS\\" /Fd"DEMO SERIAL\TESTS\VC120.PDB" /Gd /TP /analyze- C:\USERS\TD\DEV\PROJECT\SRC\THIRD-YEAR-PROJECT\BRITISH-NATIONAL-CORPUS-PARSER-TESTS\RULETEST.CPP
^C:\USERS\TD\DEV\PROJECT\SRC\THIRD-YEAR-PROJECT\BRITISH-NATIONAL-CORPUS-PARSER-TESTS\SENTENCEPARSETEST.CPP
/c /I"C:\Users\Todd\dev\project\src\Third-Year-Project\BrillTagger" /I"C:\Users\Todd\dev\project\src\Third-Year-Project\British-National-Corpus-parser\\" /I"C:\Users\Todd\dev\project\src\Third-Year-Project\Tag-Frequency\\" /I"C:\Program Files\boost\boost_1_55_0" /Zi /nologo /W3 /WX- /O2 /Oi /Ot /Oy- /GL /D WIN32 /D NDEBUG /D _CONSOLE /D _LIB /D _UNICODE /D UNICODE /Gm- /EHsc /MD /GS /Gy /fp:precise /Zc:wchar_t /Zc:forScope /Fo"DEMO SERIAL\TESTS\\" /Fd"DEMO SERIAL\TESTS\VC120.PDB" /Gd /TP /analyze- C:\USERS\TD\DEV\PROJECT\SRC\THIRD-YEAR-PROJECT\BRITISH-NATIONAL-CORPUS-PARSER-TESTS\SENTENCEPARSETEST.CPP
^C:\USERS\TD\DEV\PROJECT\SRC\THIRD-YEAR-PROJECT\BRITISH-NATIONAL-CORPUS-PARSER-TESTS\STDAFX.CPP
/c /I"C:\Users\Todd\dev\project\src\Third-Year-Project\BrillTagger" /I"C:\Users\Todd\dev\project\src\Third-Year-Project\British-National-Corpus-parser\\" /I"C:\Users\Todd\dev\project\src\Third-Year-Project\Tag-Frequency\\" /I"C:\Program Files\boost\boost_1_55_0" /Zi /nologo /W3 /WX- /O2 /Oi /Ot /Oy- /GL /D WIN32 /D NDEBUG /D _CONSOLE /D _LIB /D _UNICODE /D UNICODE /Gm- /EHsc /MD /GS /Gy /fp:precise /Zc:wchar_t /Zc:forScope /Fo"DEMO SERIAL\TESTS\\" /Fd"DEMO SERIAL\TESTS\VC120.PDB" /Gd /TP /analyze- C:\USERS\TD\DEV\PROJECT\SRC\THIRD-YEAR-PROJECT\BRITISH-NATIONAL-CORPUS-PARSER-TESTS\STDAFX.CPP
^C:\USERS\TD\DEV\PROJECT\SRC\THIRD-YEAR-PROJECT\BRITISH-NATIONAL-CORPUS-PARSER-TESTS\TAGFREQUENCYTEST.CPP
/c /I"C:\Users\Todd\dev\project\src\Third-Year-Project\BrillTagger" /I"C:\Users\Todd\dev\project\src\Third-Year-Project\British-National-Corpus-parser\\" /I"C:\Users\Todd\dev\project\src\Third-Year-Project\Tag-Frequency\\" /I"C:\Program Files\boost\boost_1_55_0" /Zi /nologo /W3 /WX- /O2 /Oi /Ot /Oy- /GL /D WIN32 /D NDEBUG /D _CONSOLE /D _LIB /D _UNICODE /D UNICODE /Gm- /EHsc /MD /GS /Gy /fp:precise /Zc:wchar_t /Zc:forScope /Fo"DEMO SERIAL\TESTS\\" /Fd"DEMO SERIAL\TESTS\VC120.PDB" /Gd /TP /analyze- C:\USERS\TD\DEV\PROJECT\SRC\THIRD-YEAR-PROJECT\BRITISH-NATIONAL-CORPUS-PARSER-TESTS\TAGFREQUENCYTEST.CPP
