^C:\USERS\TD\DEV\PROJECT\SRC\THIRD-YEAR-PROJECT\BRITISH-NATIONAL-CORPUS-PARSER-TESTS\DEMO SERIAL\TESTS\BRILLRULEGENTEST.OBJ|C:\USERS\TD\DEV\PROJECT\SRC\THIRD-YEAR-PROJECT\BRITISH-NATIONAL-CORPUS-PARSER-TESTS\DEMO SERIAL\TESTS\BRILLRULEOUTPUTTEST.OBJ|C:\USERS\TD\DEV\PROJECT\SRC\THIRD-YEAR-PROJECT\BRITISH-NATIONAL-CORPUS-PARSER-TESTS\DEMO SERIAL\TESTS\RULEPARSERTEST.OBJ|C:\USERS\TD\DEV\PROJECT\SRC\THIRD-YEAR-PROJECT\BRITISH-NATIONAL-CORPUS-PARSER-TESTS\DEMO SERIAL\TESTS\RULETEST.OBJ|C:\USERS\TD\DEV\PROJECT\SRC\THIRD-YEAR-PROJECT\BRITISH-NATIONAL-CORPUS-PARSER-TESTS\DEMO SERIAL\TESTS\SENTENCEPARSETEST.OBJ|C:\USERS\TD\DEV\PROJECT\SRC\THIRD-YEAR-PROJECT\BRITISH-NATIONAL-CORPUS-PARSER-TESTS\DEMO SERIAL\TESTS\STDAFX.OBJ|C:\USERS\TD\DEV\PROJECT\SRC\THIRD-YEAR-PROJECT\BRITISH-NATIONAL-CORPUS-PARSER-TESTS\DEMO SERIAL\TESTS\TAGFREQUENCYTEST.OBJ|C:\USERS\TD\DEV\PROJECT\SRC\THIRD-YEAR-PROJECT\DEMO SERIAL\BRILLTAGGER.LIB|C:\USERS\TD\DEV\PROJECT\SRC\THIRD-YEAR-PROJECT\DEMO SERIAL\BRITISH-NATIONAL-CORPUS-PARSER.LIB|C:\USERS\TD\DEV\PROJECT\SRC\THIRD-YEAR-PROJECT\DEMO SERIAL\TAG-FREQUENCY.LIB
C:\PROGRAM FILES\WINDOWS KITS\8.1\LIB\WINV6.3\UM\X86\KERNEL32.LIB
C:\PROGRAM FILES\WINDOWS KITS\8.1\LIB\WINV6.3\UM\X86\USER32.LIB
C:\PROGRAM FILES\WINDOWS KITS\8.1\LIB\WINV6.3\UM\X86\GDI32.LIB
C:\PROGRAM FILES\WINDOWS KITS\8.1\LIB\WINV6.3\UM\X86\WINSPOOL.LIB
C:\PROGRAM FILES\WINDOWS KITS\8.1\LIB\WINV6.3\UM\X86\COMDLG32.LIB
C:\PROGRAM FILES\WINDOWS KITS\8.1\LIB\WINV6.3\UM\X86\ADVAPI32.LIB
C:\PROGRAM FILES\WINDOWS KITS\8.1\LIB\WINV6.3\UM\X86\SHELL32.LIB
C:\PROGRAM FILES\WINDOWS KITS\8.1\LIB\WINV6.3\UM\X86\OLE32.LIB
C:\PROGRAM FILES\WINDOWS KITS\8.1\LIB\WINV6.3\UM\X86\OLEAUT32.LIB
C:\PROGRAM FILES\WINDOWS KITS\8.1\LIB\WINV6.3\UM\X86\UUID.LIB
C:\PROGRAM FILES\WINDOWS KITS\8.1\LIB\WINV6.3\UM\X86\ODBC32.LIB
C:\PROGRAM FILES\WINDOWS KITS\8.1\LIB\WINV6.3\UM\X86\ODBCCP32.LIB
C:\USERS\TD\DEV\PROJECT\SRC\THIRD-YEAR-PROJECT\BRITISH-NATIONAL-CORPUS-PARSER-TESTS\DEMO SERIAL\TESTS\BRILLRULEGENTEST.OBJ
C:\USERS\TD\DEV\PROJECT\SRC\THIRD-YEAR-PROJECT\BRITISH-NATIONAL-CORPUS-PARSER-TESTS\DEMO SERIAL\TESTS\BRILLRULEOUTPUTTEST.OBJ
C:\USERS\TD\DEV\PROJECT\SRC\THIRD-YEAR-PROJECT\BRITISH-NATIONAL-CORPUS-PARSER-TESTS\DEMO SERIAL\TESTS\RULEPARSERTEST.OBJ
C:\USERS\TD\DEV\PROJECT\SRC\THIRD-YEAR-PROJECT\BRITISH-NATIONAL-CORPUS-PARSER-TESTS\DEMO SERIAL\TESTS\RULETEST.OBJ
C:\USERS\TD\DEV\PROJECT\SRC\THIRD-YEAR-PROJECT\BRITISH-NATIONAL-CORPUS-PARSER-TESTS\DEMO SERIAL\TESTS\SENTENCEPARSETEST.OBJ
C:\USERS\TD\DEV\PROJECT\SRC\THIRD-YEAR-PROJECT\BRITISH-NATIONAL-CORPUS-PARSER-TESTS\DEMO SERIAL\TESTS\STDAFX.OBJ
C:\USERS\TD\DEV\PROJECT\SRC\THIRD-YEAR-PROJECT\BRITISH-NATIONAL-CORPUS-PARSER-TESTS\DEMO SERIAL\TESTS\TAGFREQUENCYTEST.OBJ
C:\USERS\TD\DEV\PROJECT\SRC\THIRD-YEAR-PROJECT\DEMO SERIAL\BRITISH-NATIONAL-CORPUS-PARSER.LIB
C:\USERS\TD\DEV\PROJECT\SRC\THIRD-YEAR-PROJECT\DEMO SERIAL\TAG-FREQUENCY.LIB
C:\USERS\TD\DEV\PROJECT\SRC\THIRD-YEAR-PROJECT\DEMO SERIAL\BRILLTAGGER.LIB
C:\WINDOWS\GLOBALIZATION\SORTING\SORTDEFAULT.NLS
C:\PROGRAM FILES\MICROSOFT VISUAL STUDIO 12.0\VC\BIN\C2.DLL
C:\PROGRAM FILES\MICROSOFT VISUAL STUDIO 12.0\VC\LIB\MSVCPRT.LIB
C:\PROGRAM FILES\BOOST\BOOST_1_55_0\STAGE\LIB\LIBBOOST_UNIT_TEST_FRAMEWORK-VC120-MT-1_55.LIB
C:\PROGRAM FILES\BOOST\BOOST_1_55_0\STAGE\LIB\LIBBOOST_FILESYSTEM-VC120-MT-1_55.LIB
C:\PROGRAM FILES\BOOST\BOOST_1_55_0\STAGE\LIB\LIBBOOST_SYSTEM-VC120-MT-1_55.LIB
C:\PROGRAM FILES\MICROSOFT VISUAL STUDIO 12.0\VC\LIB\MSVCRT.LIB
C:\PROGRAM FILES\MICROSOFT VISUAL STUDIO 12.0\VC\LIB\OLDNAMES.LIB
C:\PROGRAM FILES\MICROSOFT VISUAL STUDIO 12.0\VC\BIN\1033\LINKUI.DLL
C:\PROGRAM FILES\WINDOWS KITS\8.1\BIN\X86\RC.EXE
C:\PROGRAM FILES\MICROSOFT VISUAL STUDIO 12.0\VC\BIN\CVTRES.EXE
C:\WINDOWS\SYSTEM32\TZRES.DLL
C:\WINDOWS\SYSTEM32\RSAENH.DLL
