^C:\USERS\TD\DEV\PROJECT\SRC\THIRD-YEAR-PROJECT\BRILLTAGGER\BRILLTAGGER.CPP|C:\USERS\TD\DEV\PROJECT\SRC\THIRD-YEAR-PROJECT\BRILLTAGGER\BRILLTAGGERRULES.CPP|C:\USERS\TD\DEV\PROJECT\SRC\THIRD-YEAR-PROJECT\BRILLTAGGER\BRILLTAGGERTRAINER.CPP|C:\USERS\TD\DEV\PROJECT\SRC\THIRD-YEAR-PROJECT\BRILLTAGGER\RULEPARSER.CPP|C:\USERS\TD\DEV\PROJECT\SRC\THIRD-YEAR-PROJECT\BRILLTAGGER\RULESCHEMA.CPP|C:\USERS\TD\DEV\PROJECT\SRC\THIRD-YEAR-PROJECT\BRILLTAGGER\STDAFX.CPP
C:\USERS\TD\DEV\PROJECT\SRC\THIRD-YEAR-PROJECT\BRILLTAGGER\DEMO\VC120.PDB
C:\USERS\TD\DEV\PROJECT\SRC\THIRD-YEAR-PROJECT\BRILLTAGGER\DEMO\STDAFX.OBJ
C:\USERS\TD\DEV\PROJECT\SRC\THIRD-YEAR-PROJECT\BRILLTAGGER\DEMO\RULEPARSER.OBJ
C:\USERS\TD\DEV\PROJECT\SRC\THIRD-YEAR-PROJECT\BRILLTAGGER\DEMO\RULESCHEMA.OBJ
C:\USERS\TD\DEV\PROJECT\SRC\THIRD-YEAR-PROJECT\BRILLTAGGER\DEMO\BRILLTAGGERTRAINER.OBJ
C:\USERS\TD\DEV\PROJECT\SRC\THIRD-YEAR-PROJECT\BRILLTAGGER\DEMO\BRILLTAGGERRULES.OBJ
C:\USERS\TD\DEV\PROJECT\SRC\THIRD-YEAR-PROJECT\BRILLTAGGER\DEMO\BRILLTAGGER.OBJ
^C:\USERS\TD\DEV\PROJECT\SRC\THIRD-YEAR-PROJECT\BRILLTAGGER\BRILLTAGGER.CPP
C:\USERS\TD\DEV\PROJECT\SRC\THIRD-YEAR-PROJECT\BRILLTAGGER\DEMO\VC120.PDB
^C:\USERS\TD\DEV\PROJECT\SRC\THIRD-YEAR-PROJECT\BRILLTAGGER\BRILLTAGGERRULES.CPP
C:\USERS\TD\DEV\PROJECT\SRC\THIRD-YEAR-PROJECT\BRILLTAGGER\DEMO\VC120.PDB
^C:\USERS\TD\DEV\PROJECT\SRC\THIRD-YEAR-PROJECT\BRILLTAGGER\BRILLTAGGERTRAINER.CPP
C:\USERS\TD\DEV\PROJECT\SRC\THIRD-YEAR-PROJECT\BRILLTAGGER\DEMO\VC120.PDB
^C:\USERS\TD\DEV\PROJECT\SRC\THIRD-YEAR-PROJECT\BRILLTAGGER\RULESCHEMA.CPP
C:\USERS\TD\DEV\PROJECT\SRC\THIRD-YEAR-PROJECT\BRILLTAGGER\DEMO\VC120.PDB
^C:\USERS\TD\DEV\PROJECT\SRC\THIRD-YEAR-PROJECT\BRILLTAGGER\RULEPARSER.CPP
C:\USERS\TD\DEV\PROJECT\SRC\THIRD-YEAR-PROJECT\BRILLTAGGER\DEMO\VC120.PDB
^C:\USERS\TD\DEV\PROJECT\SRC\THIRD-YEAR-PROJECT\BRILLTAGGER\STDAFX.CPP
C:\USERS\TD\DEV\PROJECT\SRC\THIRD-YEAR-PROJECT\BRILLTAGGER\DEMO\VC120.PDB
